{
    "items": [
      {
        "applicationId": 68,
        "userId": 4,
        "companyId": 6,
        "companyName": "Algoriza",
        "company": {
          "companyId": 6,
          "name": "Algoriza",
          "location": "Cairo",
          "careersLink": "https://algoriza.com/",
          "linkedinLink": "https://www.linkedin.com/company/algoriza/",
          "createdAt": "2025-05-09T22:50:05",
          "updatedAt": "2025-05-09T22:50:05"
        },
        "jobTitle": "Software Engineer",
        "jobType": "Internship",
        "description": "Job Title: Software Engineering Intern\nLocation: [Cairo, Egypt / Remote]\nDuration: [3 Months – Extendable or based on performance]\nDepartment: Software Engineering\nCompany: Algoriza\n\nAbout Algoriza\nAlgoriza is a leading software solutions provider dedicated to delivering high-quality digital products and services across various industries, including healthcare, e-commerce, and enterprise solutions. Our mission is to drive innovation through technology and empower businesses with scalable and reliable software systems. We value talent, creativity, and a commitment to continuous learning.\n\nInternship Overview\nWe are seeking highly motivated and enthusiastic Software Engineering Interns to join our development team. This internship offers a valuable opportunity to gain hands-on experience in software development, work on real-world projects, and learn from experienced engineers in a professional setting.\n\nKey Responsibilities\n\nAssist in designing, developing, testing, and maintaining web and mobile applications.\n\nWrite clean, maintainable, and efficient code under the guidance of senior developers.\n\nParticipate in code reviews, debugging, and troubleshooting of software issues.\n\nCollaborate with cross-functional teams including UI/UX designers, QA engineers, and product managers.\n\nStay up-to-date with emerging technologies and industry trends.\n\nRequirements\n\nCurrently pursuing or recently completed a degree in Computer Science, Software Engineering, or a related field.\n\nBasic understanding of programming languages such as JavaScript, Python, Java, or C#.\n\nFamiliarity with software development concepts and version control systems (e.g., Git).\n\nStrong problem-solving skills and attention to detail.\n\nAbility to work independently as well as in a collaborative team environment.\n\nGood communication and time management skills.\n\nPreferred Qualifications\n\nExperience with frameworks or tools such as React, Django, .NET, or Flutter is a plus.\n\nExposure to Agile development methodologies.\n\nParticipation in coding bootcamps, side projects, or open-source contributions.\n\nWhat We Offer\n\nA learning-driven environment with mentorship from experienced professionals.\n\nExposure to real-world software development practices and tools.\n\nOpportunity to work on impactful projects.\n\nCertificate of completion and potential for full-time employment based on performance.\n\nHow to Apply\nPlease send your resume and any relevant portfolio or GitHub links to [your email address] with the subject line “Software Engineering Internship Application – [Your Name]”.",
        "link": "https://github.com/me50/zeyadsalah22/tree/ai50/projects/2020/x/parser",
        "submittedCvId": 10,
        "atsScore": 69,
        "stage": "Applied",
        "status": "Pending",
        "submissionDate": "2025-06-19",
        "createdAt": "2025-06-18T21:19:25",
        "updatedAt": "2025-06-18T21:19:25",
        "contactedEmployees": [
          {
            "employeeId": 14,
            "userId": 4,
            "companyId": 6,
            "companyName": "Algoriza",
            "company": {
              "companyId": 6,
              "name": "Algoriza",
              "location": "Cairo",
              "careersLink": "https://algoriza.com/",
              "linkedinLink": "https://www.linkedin.com/company/algoriza/",
              "createdAt": "2025-05-09T22:50:05",
              "updatedAt": "2025-05-09T22:50:05"
            },
            "name": "Testwwww",
            "linkedinLink": "https://www.linkedin.com/in/zeyad02/",
            "email": "zeyad.moussa@ejust.edu.eg",
            "jobTitle": "Web Developer",
            "contacted": "SENT",
            "createdAt": "2025-06-04T22:43:33",
            "updatedAt": "2025-06-04T22:43:33",
            "isDeleted": false
          }
        ]
      },
      {
        "applicationId": 65,
        "userId": 4,
        "companyId": 6,
        "companyName": "Algoriza",
        "company": {
          "companyId": 6,
          "name": "Algoriza",
          "location": "Cairo",
          "careersLink": "https://algoriza.com/",
          "linkedinLink": "https://www.linkedin.com/company/algoriza/",
          "createdAt": "2025-05-09T22:50:05",
          "updatedAt": "2025-05-09T22:50:05"
        },
        "jobTitle": "shbdsfbQ",
        "jobType": "DSN",
        "description": "FEDFDFGFHB",
        "link": "https://github.com/me50/zeyadsalah22/tree/ai50/projects/2020/x/parser",
        "submittedCvId": 10,
        "atsScore": null,
        "stage": "Applied",
        "status": "Pending",
        "submissionDate": "2025-06-05",
        "createdAt": "2025-06-04T22:29:46",
        "updatedAt": "2025-06-04T22:29:46",
        "contactedEmployees": []
      },
      {
        "applicationId": 63,
        "userId": 4,
        "companyId": 6,
        "companyName": "Algoriza",
        "company": {
          "companyId": 6,
          "name": "Algoriza",
          "location": "Cairo",
          "careersLink": "https://algoriza.com/",
          "linkedinLink": "https://www.linkedin.com/company/algoriza/",
          "createdAt": "2025-05-09T22:50:05",
          "updatedAt": "2025-05-09T22:50:05"
        },
        "jobTitle": "Bug Hunter",
        "jobType": "Full Time",
        "description": "test employees post",
        "link": "https://github.com/me50/zeyadsalah22/tree/ai50/projects/2020/x/parser",
        "submittedCvId": 10,
        "atsScore": null,
        "stage": "Applied",
        "status": "Pending",
        "submissionDate": "2025-06-03",
        "createdAt": "2025-06-03T21:49:30",
        "updatedAt": "2025-06-03T21:49:30",
        "contactedEmployees": [
          {
            "employeeId": 10,
            "userId": 4,
            "companyId": 6,
            "companyName": "Algoriza",
            "company": {
              "companyId": 6,
              "name": "Algoriza",
              "location": "Cairo",
              "careersLink": "https://algoriza.com/",
              "linkedinLink": "https://www.linkedin.com/company/algoriza/",
              "createdAt": "2025-05-09T22:50:05",
              "updatedAt": "2025-05-09T22:50:05"
            },
            "name": "testttt",
            "linkedinLink": "https://www.nytimes.com/interactive/2022/upshot/wordle-bot.html",
            "email": "user@example.com",
            "jobTitle": "strsswswsing",
            "contacted": "string",
            "createdAt": "2025-05-21T17:09:41",
            "updatedAt": "2025-05-21T17:11:17",
            "isDeleted": false
          },
          {
            "employeeId": 12,
            "userId": 4,
            "companyId": 6,
            "companyName": "Algoriza",
            "company": {
              "companyId": 6,
              "name": "Algoriza",
              "location": "Cairo",
              "careersLink": "https://algoriza.com/",
              "linkedinLink": "https://www.linkedin.com/company/algoriza/",
              "createdAt": "2025-05-09T22:50:05",
              "updatedAt": "2025-05-09T22:50:05"
            },
            "name": "strinddsdsg",
            "linkedinLink": "https://classroom.google.com/c/NzUzNjc4MzgwMjIy/a/Nzc4MzQ5NjYzMzc0/details",
            "email": "user@example.com",
            "jobTitle": "string",
            "contacted": "string",
            "createdAt": "2025-05-21T17:50:18",
            "updatedAt": "2025-05-21T17:50:18",
            "isDeleted": false
          }
        ]
      },
      {
        "applicationId": 67,
        "userId": 4,
        "companyId": 6,
        "companyName": "Algoriza",
        "company": {
          "companyId": 6,
          "name": "Algoriza",
          "location": "Cairo",
          "careersLink": "https://algoriza.com/",
          "linkedinLink": "https://www.linkedin.com/company/algoriza/",
          "createdAt": "2025-05-09T22:50:05",
          "updatedAt": "2025-05-09T22:50:05"
        },
        "jobTitle": "Senior Software Engineer",
        "jobType": "Internship",
        "description": "trdhg",
        "link": "https://github.com/me50/zeyadsalah22/tree/ai50/projects/2020/x/parser",
        "submittedCvId": 10,
        "atsScore": 49,
        "stage": "Applied",
        "status": "Pending",
        "submissionDate": "2025-06-03",
        "createdAt": "2025-06-05T12:05:11",
        "updatedAt": "2025-06-05T12:05:11",
        "contactedEmployees": [
          {
            "employeeId": 12,
            "userId": 4,
            "companyId": 6,
            "companyName": "Algoriza",
            "company": {
              "companyId": 6,
              "name": "Algoriza",
              "location": "Cairo",
              "careersLink": "https://algoriza.com/",
              "linkedinLink": "https://www.linkedin.com/company/algoriza/",
              "createdAt": "2025-05-09T22:50:05",
              "updatedAt": "2025-05-09T22:50:05"
            },
            "name": "strinddsdsg",
            "linkedinLink": "https://classroom.google.com/c/NzUzNjc4MzgwMjIy/a/Nzc4MzQ5NjYzMzc0/details",
            "email": "user@example.com",
            "jobTitle": "string",
            "contacted": "string",
            "createdAt": "2025-05-21T17:50:18",
            "updatedAt": "2025-05-21T17:50:18",
            "isDeleted": false
          },
          {
            "employeeId": 10,
            "userId": 4,
            "companyId": 6,
            "companyName": "Algoriza",
            "company": {
              "companyId": 6,
              "name": "Algoriza",
              "location": "Cairo",
              "careersLink": "https://algoriza.com/",
              "linkedinLink": "https://www.linkedin.com/company/algoriza/",
              "createdAt": "2025-05-09T22:50:05",
              "updatedAt": "2025-05-09T22:50:05"
            },
            "name": "testttt",
            "linkedinLink": "https://www.nytimes.com/interactive/2022/upshot/wordle-bot.html",
            "email": "user@example.com",
            "jobTitle": "strsswswsing",
            "contacted": "string",
            "createdAt": "2025-05-21T17:09:41",
            "updatedAt": "2025-05-21T17:11:17",
            "isDeleted": false
          }
        ]
      },
      {
        "applicationId": 61,
        "userId": 4,
        "companyId": 9,
        "companyName": "Amazon",
        "company": {
          "companyId": 9,
          "name": "Amazon",
          "location": "Cairo, Giza, Alexandria",
          "careersLink": "https://www.amazon.jobs/",
          "linkedinLink": "https://www.linkedin.com/company/amazon/",
          "createdAt": "2025-05-09T22:50:05",
          "updatedAt": "2025-05-09T22:50:05"
        },
        "jobTitle": "Software Engineer",
        "jobType": "Full Time",
        "description": "nnn",
        "link": "https://github.com/me50/zeyadsalah22/tree/ai50/projects/2020/x/parser",
        "submittedCvId": 10,
        "atsScore": null,
        "stage": "Applied",
        "status": "Pending",
        "submissionDate": "2025-05-21",
        "createdAt": "2025-05-21T20:46:00",
        "updatedAt": "2025-05-21T20:46:00",
        "contactedEmployees": []
      },
      {
        "applicationId": 62,
        "userId": 4,
        "companyId": 6,
        "companyName": "Algoriza",
        "company": {
          "companyId": 6,
          "name": "Algoriza",
          "location": "Cairo",
          "careersLink": "https://algoriza.com/",
          "linkedinLink": "https://www.linkedin.com/company/algoriza/",
          "createdAt": "2025-05-09T22:50:05",
          "updatedAt": "2025-05-09T22:50:05"
        },
        "jobTitle": "Software Engineer",
        "jobType": "Full Time",
        "description": "nnn",
        "link": "https://github.com/me50/zeyadsalah22/tree/ai50/projects/2020/x/parser",
        "submittedCvId": 10,
        "atsScore": null,
        "stage": "Applied",
        "status": "Pending",
        "submissionDate": "2025-05-21",
        "createdAt": "2025-05-21T20:46:13",
        "updatedAt": "2025-05-21T20:46:13",
        "contactedEmployees": []
      },
      {
        "applicationId": 59,
        "userId": 4,
        "companyId": 21,
        "companyName": "Bravo",
        "company": {
          "companyId": 21,
          "name": "Bravo",
          "location": "Cairo",
          "careersLink": "-",
          "linkedinLink": "https://www.linkedin.com/company/bravo-shop-right/",
          "createdAt": "2025-05-09T22:50:05",
          "updatedAt": "2025-05-09T22:50:05"
        },
        "jobTitle": "Software Engineer 121",
        "jobType": "Full Time",
        "description": "Description for job at company 121",
        "link": null,
        "submittedCvId": 3,
        "atsScore": 27,
        "stage": "Applied",
        "status": "Pending",
        "submissionDate": "2025-05-20",
        "createdAt": "2025-05-21T00:00:00",
        "updatedAt": "2025-05-21T00:00:00",
        "contactedEmployees": []
      },
      {
        "applicationId": 58,
        "userId": 4,
        "companyId": 43,
        "companyName": "EFG Holding",
        "company": {
          "companyId": 43,
          "name": "EFG Holding",
          "location": "Cairo",
          "careersLink": "https://careers.efghldg.com/",
          "linkedinLink": "https://www.linkedin.com/company/efgholding/",
          "createdAt": "2025-05-09T22:50:05",
          "updatedAt": "2025-05-09T22:50:05"
        },
        "jobTitle": "Full Stack Developer 43",
        "jobType": "Full Time",
        "description": "Description for job at company 43",
        "link": null,
        "submittedCvId": 3,
        "atsScore": 37,
        "stage": "Phonescreen",
        "status": "Accepted",
        "submissionDate": "2025-05-15",
        "createdAt": "2025-05-21T00:00:00",
        "updatedAt": "2025-05-21T00:00:00",
        "contactedEmployees": []
      },
      {
        "applicationId": 29,
        "userId": 4,
        "companyId": 27,
        "companyName": "CairoMotive",
        "company": {
          "companyId": 27,
          "name": "CairoMotive",
          "location": "Cairo",
          "careersLink": "https://www.cairomotive.com/careers",
          "linkedinLink": "https://www.linkedin.com/company/cairomotive/",
          "createdAt": "2025-05-09T22:50:05",
          "updatedAt": "2025-05-09T22:50:05"
        },
        "jobTitle": "Frontend Developer 178",
        "jobType": "Full Time",
        "description": "Description for job at company 178",
        "link": null,
        "submittedCvId": 3,
        "atsScore": 12,
        "stage": "Applied",
        "status": "Pending",
        "submissionDate": "2025-05-10",
        "createdAt": "2025-05-21T00:00:00",
        "updatedAt": "2025-05-21T00:00:00",
        "contactedEmployees": []
      },
      {
        "applicationId": 48,
        "userId": 4,
        "companyId": 44,
        "companyName": "EGBANK",
        "company": {
          "companyId": 44,
          "name": "EGBANK",
          "location": "Giza",
          "careersLink": "https://www.eg-bank.com/En/Careers",
          "linkedinLink": "https://www.linkedin.com/company/egbankegypt/",
          "createdAt": "2025-05-09T22:50:05",
          "updatedAt": "2025-05-09T22:50:05"
        },
        "jobTitle": "Full Stack Developer 44",
        "jobType": "Full Time",
        "description": "Description for job at company 44",
        "link": null,
        "submittedCvId": 3,
        "atsScore": 28,
        "stage": "Offer",
        "status": "Accepted",
        "submissionDate": "2025-05-06",
        "createdAt": "2025-05-21T00:00:00",
        "updatedAt": "2025-05-21T00:00:00",
        "contactedEmployees": []
      }
    ],
    "pageNumber": 1,
    "pageSize": 10,
    "totalCount": 49,
    "totalPages": 5,
    "hasPrevious": false,
    "hasNext": true,
    "currentPage": null
  }